Mar 10 19:18:56.744 HYPERVISOR: Release 0.2.14-x86/Windows (tag 2014092320)
Mar 10 19:18:56.746 HYPERVISOR: Started on IP = 127.0.0.1, TCP port = 52283.
Mar 10 19:18:57.140 HYPERVISOR: exec_cmd: hypervisor version 
Mar 10 19:18:57.141 HYPERVISOR: exec_cmd: hypervisor uuid 
Mar 10 19:18:57.142 HYPERVISOR: exec_cmd: hypervisor working_dir C:\Users\Clesio\GNS3\projects\Aula 25\project-files\dynamips 
Mar 10 19:18:57.142 GENERAL: working_dir=C:\Users\Clesio\GNS3\projects\Aula 25\project-files\dynamips
Mar 10 19:18:57.143 HYPERVISOR: exec_cmd: vm create ESW2 4 c3745 
Mar 10 19:18:57.146 VM: VM ESW2 created.
Mar 10 19:18:57.148 HYPERVISOR: exec_cmd: vm set_con_tcp_port ESW2 2008 
Mar 10 19:18:57.149 HYPERVISOR: exec_cmd: c3745 get_mac_addr ESW2 
Mar 10 19:18:57.149 HYPERVISOR: exec_cmd: vm set_nvram ESW2 256 
Mar 10 19:18:57.150 HYPERVISOR: exec_cmd: vm set_disk0 ESW2 1 
Mar 10 19:18:57.151 HYPERVISOR: exec_cmd: vm set_ios ESW2 C:/Users/Clesio/GNS3/images/IOS/c3745-ipvoicek9-mz.124-13b.image 
Mar 10 19:18:57.152 HYPERVISOR: exec_cmd: vm set_ram ESW2 256 
Mar 10 19:18:57.153 HYPERVISOR: exec_cmd: vm set_exec_area ESW2 64 
Mar 10 19:18:57.154 HYPERVISOR: exec_cmd: vm get_status ESW2 
Mar 10 19:18:57.155 HYPERVISOR: exec_cmd: vm slot_add_binding ESW2 1 0 NM-16ESW 
Mar 10 19:18:57.155 HYPERVISOR: exec_cmd: vm get_status ESW2 
Mar 10 19:18:57.156 HYPERVISOR: exec_cmd: vm set_idle_pc ESW2 0x60a4dabc 
Mar 10 19:18:57.162 HYPERVISOR: exec_cmd: vm set_config ESW2 configs/i4_startup-config.cfg 
Mar 10 19:18:57.163 HYPERVISOR: exec_cmd: vm set_ghost_status ESW2 2 
Mar 10 19:18:57.164 HYPERVISOR: exec_cmd: vm set_ghost_file ESW2 c3745-ipvoicek9-mz.124-13b.image-256.ghost 
Mar 10 19:20:09.664 HYPERVISOR: exec_cmd: vm rename ESW2 GRP2 
Mar 10 19:27:46.113 HYPERVISOR: exec_cmd: nio create_udp udp-2846df5d-fa89-46c1-8f30-c1160ea3e839 10002 127.0.0.1 10003 
Mar 10 19:27:46.123 HYPERVISOR: exec_cmd: vm slot_add_nio_binding GRP2 0 0 udp-2846df5d-fa89-46c1-8f30-c1160ea3e839 
Mar 10 19:27:46.123 HYPERVISOR: exec_cmd: vm get_status GRP2 
Mar 10 19:34:30.985 HYPERVISOR: exec_cmd: vm get_status GRP2 
Mar 10 19:34:30.986 HYPERVISOR: exec_cmd: vm slot_remove_nio_binding GRP2 0 0 
Mar 10 19:34:30.986 HYPERVISOR: exec_cmd: nio delete udp-2846df5d-fa89-46c1-8f30-c1160ea3e839 
Mar 10 19:35:21.321 HYPERVISOR: exec_cmd: nio create_udp udp-04c29fe3-06fd-4377-8cd6-1f86d0f4b51b 10002 127.0.0.1 10003 
Mar 10 19:35:21.329 HYPERVISOR: exec_cmd: vm slot_add_nio_binding GRP2 1 1 udp-04c29fe3-06fd-4377-8cd6-1f86d0f4b51b 
Mar 10 19:35:21.330 HYPERVISOR: exec_cmd: vm get_status GRP2 
Mar 10 19:35:42.889 HYPERVISOR: exec_cmd: vm get_status GRP2 
Mar 10 19:35:42.893 HYPERVISOR: exec_cmd: vm slot_remove_nio_binding GRP2 1 1 
Mar 10 19:35:42.893 HYPERVISOR: exec_cmd: nio delete udp-04c29fe3-06fd-4377-8cd6-1f86d0f4b51b 
Mar 10 19:36:01.422 HYPERVISOR: exec_cmd: nio create_udp udp-b40ae265-ae48-4251-90de-b64e195f30f8 10002 127.0.0.1 10003 
Mar 10 19:36:01.431 HYPERVISOR: exec_cmd: vm slot_add_nio_binding GRP2 1 0 udp-b40ae265-ae48-4251-90de-b64e195f30f8 
Mar 10 19:36:01.432 HYPERVISOR: exec_cmd: vm get_status GRP2 
Mar 10 19:45:14.328 HYPERVISOR: exec_cmd: vm get_status GRP2 
Mar 10 19:45:14.328 HYPERVISOR: exec_cmd: vm slot_remove_nio_binding GRP2 1 0 
Mar 10 19:45:14.329 HYPERVISOR: exec_cmd: nio delete udp-b40ae265-ae48-4251-90de-b64e195f30f8 
Mar 10 19:46:28.395 HYPERVISOR: exec_cmd: nio create_udp udp-5fc31b2f-f966-4653-8b64-921b8a4b6429 10002 127.0.0.1 10003 
Mar 10 19:46:28.406 HYPERVISOR: exec_cmd: vm slot_add_nio_binding GRP2 1 0 udp-5fc31b2f-f966-4653-8b64-921b8a4b6429 
Mar 10 19:46:28.406 HYPERVISOR: exec_cmd: vm get_status GRP2 
Mar 10 19:46:39.658 HYPERVISOR: exec_cmd: vm get_status GRP2 
Mar 10 19:46:39.659 HYPERVISOR: exec_cmd: vm start GRP2 
Mar 10 20:13:13.303 HYPERVISOR: exec_cmd: nio create_udp udp-88690f1c-e4eb-453d-aab9-0e67e9ce85f8 10020 127.0.0.1 10021 
Mar 10 20:13:13.304 HYPERVISOR: exec_cmd: vm slot_add_nio_binding GRP2 1 1 udp-88690f1c-e4eb-453d-aab9-0e67e9ce85f8 
Mar 10 20:13:13.305 HYPERVISOR: exec_cmd: vm get_status GRP2 
Mar 10 20:13:13.305 HYPERVISOR: exec_cmd: vm slot_enable_nio GRP2 1 1 
Mar 10 21:29:49.701 HYPERVISOR: exec_cmd: vm extract_config GRP2 
Mar 10 21:39:29.183 HYPERVISOR: exec_cmd: vm get_status GRP2 
Mar 10 21:39:29.183 HYPERVISOR: exec_cmd: vm slot_disable_nio GRP2 1 1 
Mar 10 21:39:29.193 HYPERVISOR: exec_cmd: vm slot_remove_nio_binding GRP2 1 1 
Mar 10 21:39:29.194 HYPERVISOR: exec_cmd: nio delete udp-88690f1c-e4eb-453d-aab9-0e67e9ce85f8 
Mar 10 21:39:37.007 HYPERVISOR: exec_cmd: nio create_udp udp-8f35b09c-ad35-4dbb-b06f-1e3a8af9b4ed 10022 127.0.0.1 10020 
Mar 10 21:39:37.008 HYPERVISOR: exec_cmd: vm slot_add_nio_binding GRP2 1 1 udp-8f35b09c-ad35-4dbb-b06f-1e3a8af9b4ed 
Mar 10 21:39:37.008 HYPERVISOR: exec_cmd: vm get_status GRP2 
Mar 10 21:39:37.009 HYPERVISOR: exec_cmd: vm slot_enable_nio GRP2 1 1 
Mar 10 22:00:27.500 HYPERVISOR: exec_cmd: vm get_status GRP2 
Mar 10 22:00:27.500 HYPERVISOR: exec_cmd: vm stop GRP2 
Mar 10 22:00:27.655 VM: VM GRP2 shutdown.
