Mar 10 22:02:28.732 HYPERVISOR: Release 0.2.14-x86/Windows (tag 2014092320)
Mar 10 22:02:28.734 HYPERVISOR: Started on IP = 127.0.0.1, TCP port = 57900.
Mar 10 22:02:28.769 HYPERVISOR: exec_cmd: hypervisor version 
Mar 10 22:02:28.770 HYPERVISOR: exec_cmd: hypervisor uuid 
Mar 10 22:02:28.770 HYPERVISOR: exec_cmd: hypervisor working_dir D:/Nuvens/SkyDrive/bitbucket/senai-ccna-2016/Aula 25/Aula 25 - Aula Configuracao seguranca\project-files\dynamips 
Mar 10 22:02:28.771 GENERAL: working_dir=D:/Nuvens/SkyDrive/bitbucket/senai-ccna-2016/Aula 25/Aula 25 - Aula Configuracao seguranca\project-files\dynamips
Mar 10 22:02:28.771 HYPERVISOR: exec_cmd: vm create GRP2 4 c3745 
Mar 10 22:02:28.782 VM: VM GRP2 created.
Mar 10 22:02:28.786 HYPERVISOR: exec_cmd: vm set_con_tcp_port GRP2 2008 
Mar 10 22:02:28.786 HYPERVISOR: exec_cmd: c3745 get_mac_addr GRP2 
Mar 10 22:02:28.787 HYPERVISOR: exec_cmd: c3745 set_mac_addr GRP2 c404.3664.0000 
Mar 10 22:02:28.787 HYPERVISOR: exec_cmd: vm set_ios GRP2 C:/Users/Clesio/GNS3/images/IOS/c3745-ipvoicek9-mz.124-13b.image 
Mar 10 22:02:28.788 HYPERVISOR: exec_cmd: vm set_ram GRP2 256 
Mar 10 22:02:28.789 HYPERVISOR: exec_cmd: vm get_status GRP2 
Mar 10 22:02:28.789 HYPERVISOR: exec_cmd: vm set_idle_pc GRP2 0x60a4dabc 
Mar 10 22:02:28.790 HYPERVISOR: exec_cmd: vm set_nvram GRP2 256 
Mar 10 22:02:28.790 HYPERVISOR: exec_cmd: vm set_disk0 GRP2 1 
Mar 10 22:02:28.791 HYPERVISOR: exec_cmd: vm set_exec_area GRP2 64 
Mar 10 22:02:28.792 HYPERVISOR: exec_cmd: vm get_status GRP2 
Mar 10 22:02:28.792 HYPERVISOR: exec_cmd: vm slot_add_binding GRP2 1 0 NM-16ESW 
Mar 10 22:02:28.793 HYPERVISOR: exec_cmd: vm set_config GRP2 configs/i4_startup-config.cfg 
Mar 10 22:02:28.795 HYPERVISOR: exec_cmd: vm create Ghost 0 c3745 
Mar 10 22:02:28.797 VM: VM Ghost created.
Mar 10 22:02:28.798 HYPERVISOR: exec_cmd: vm set_ios Ghost C:/Users/Clesio/GNS3/images/IOS/c3745-ipvoicek9-mz.124-13b.image 
Mar 10 22:02:28.799 HYPERVISOR: exec_cmd: vm set_ghost_status Ghost 1 
Mar 10 22:02:28.800 HYPERVISOR: exec_cmd: vm set_ghost_file Ghost c3745-ipvoicek9-mz.124-13b.image-256.ghost 
Mar 10 22:02:28.800 HYPERVISOR: exec_cmd: vm set_ram Ghost 256 
Mar 10 22:02:28.801 HYPERVISOR: exec_cmd: vm get_status Ghost 
Mar 10 22:02:28.802 HYPERVISOR: exec_cmd: vm start Ghost 
Mar 10 22:02:29.139 HYPERVISOR: exec_cmd: vm get_status Ghost 
Mar 10 22:02:29.140 HYPERVISOR: exec_cmd: vm stop Ghost 
Mar 10 22:02:29.256 VM: VM Ghost shutdown.
Mar 10 22:02:29.257 HYPERVISOR: exec_cmd: vm clean_delete Ghost 
Mar 10 22:02:29.257 VM: VM Ghost destroyed.
Mar 10 22:02:29.271 HYPERVISOR: exec_cmd: vm set_ghost_status GRP2 2 
Mar 10 22:02:29.273 HYPERVISOR: exec_cmd: vm set_ghost_file GRP2 c3745-ipvoicek9-mz.124-13b.image-256.ghost 
Mar 10 22:02:34.266 HYPERVISOR: exec_cmd: nio create_udp udp-7774472b-1830-4c3e-9187-cc9ab4b57c50 10000 127.0.0.1 10005 
Mar 10 22:02:34.267 HYPERVISOR: exec_cmd: vm slot_add_nio_binding GRP2 1 0 udp-7774472b-1830-4c3e-9187-cc9ab4b57c50 
Mar 10 22:02:34.267 HYPERVISOR: exec_cmd: vm get_status GRP2 
Mar 10 22:02:36.186 HYPERVISOR: exec_cmd: nio create_udp udp-7ca46389-f4c4-4506-a39c-df8ef9a5177b 10023 127.0.0.1 10022 
Mar 10 22:02:36.187 HYPERVISOR: exec_cmd: vm slot_add_nio_binding GRP2 1 1 udp-7ca46389-f4c4-4506-a39c-df8ef9a5177b 
Mar 10 22:02:36.188 HYPERVISOR: exec_cmd: vm get_status GRP2 
Mar 10 22:03:13.700 HYPERVISOR: exec_cmd: vm extract_config GRP2 
Mar 10 22:03:14.312 HYPERVISOR: exec_cmd: vm get_status GRP2 
Mar 10 22:03:14.314 HYPERVISOR: exec_cmd: vm extract_config GRP2 
Mar 10 22:03:14.452 HYPERVISOR: exec_cmd: vm delete GRP2 
Mar 10 22:03:14.452 VM: VM GRP2 destroyed.
Mar 10 22:03:14.455 HYPERVISOR: exec_cmd: hypervisor stop 
Mar 10 22:03:14.789 HYPERVISOR: Stopped.
Mar 10 22:03:14.789 GENERAL: reset done.
