Mar 10 19:19:00.498 HYPERVISOR: Release 0.2.14-x86/Windows (tag 2014092320)
Mar 10 19:19:00.500 HYPERVISOR: Started on IP = 127.0.0.1, TCP port = 52291.
Mar 10 19:19:00.901 HYPERVISOR: exec_cmd: hypervisor version 
Mar 10 19:19:00.902 HYPERVISOR: exec_cmd: hypervisor uuid 
Mar 10 19:19:00.902 HYPERVISOR: exec_cmd: hypervisor working_dir C:\Users\Clesio\GNS3\projects\Aula 25\project-files\dynamips 
Mar 10 19:19:00.903 GENERAL: working_dir=C:\Users\Clesio\GNS3\projects\Aula 25\project-files\dynamips
Mar 10 19:19:00.903 HYPERVISOR: exec_cmd: vm create ESW3 5 c3745 
Mar 10 19:19:00.906 VM: VM ESW3 created.
Mar 10 19:19:00.908 HYPERVISOR: exec_cmd: vm set_con_tcp_port ESW3 2009 
Mar 10 19:19:00.909 HYPERVISOR: exec_cmd: c3745 get_mac_addr ESW3 
Mar 10 19:19:00.910 HYPERVISOR: exec_cmd: vm set_nvram ESW3 256 
Mar 10 19:19:00.910 HYPERVISOR: exec_cmd: vm set_disk0 ESW3 1 
Mar 10 19:19:00.911 HYPERVISOR: exec_cmd: vm set_ios ESW3 C:/Users/Clesio/GNS3/images/IOS/c3745-ipvoicek9-mz.124-13b.image 
Mar 10 19:19:00.912 HYPERVISOR: exec_cmd: vm set_ram ESW3 256 
Mar 10 19:19:00.913 HYPERVISOR: exec_cmd: vm set_exec_area ESW3 64 
Mar 10 19:19:00.914 HYPERVISOR: exec_cmd: vm get_status ESW3 
Mar 10 19:19:00.914 HYPERVISOR: exec_cmd: vm slot_add_binding ESW3 1 0 NM-16ESW 
Mar 10 19:19:00.915 HYPERVISOR: exec_cmd: vm get_status ESW3 
Mar 10 19:19:00.916 HYPERVISOR: exec_cmd: vm set_idle_pc ESW3 0x60a4dabc 
Mar 10 19:19:00.922 HYPERVISOR: exec_cmd: vm set_config ESW3 configs/i5_startup-config.cfg 
Mar 10 19:19:00.923 HYPERVISOR: exec_cmd: vm set_ghost_status ESW3 2 
Mar 10 19:19:00.924 HYPERVISOR: exec_cmd: vm set_ghost_file ESW3 c3745-ipvoicek9-mz.124-13b.image-256.ghost 
Mar 10 19:20:15.201 HYPERVISOR: exec_cmd: vm rename ESW3 GRP3 
Mar 10 19:27:51.455 HYPERVISOR: exec_cmd: nio create_udp udp-f55da3d1-ef8e-4e81-a433-0b0e9c603ecb 10004 127.0.0.1 10005 
Mar 10 19:27:51.465 HYPERVISOR: exec_cmd: vm slot_add_nio_binding GRP3 0 0 udp-f55da3d1-ef8e-4e81-a433-0b0e9c603ecb 
Mar 10 19:27:51.465 HYPERVISOR: exec_cmd: vm get_status GRP3 
Mar 10 19:34:38.570 HYPERVISOR: exec_cmd: vm get_status GRP3 
Mar 10 19:34:38.571 HYPERVISOR: exec_cmd: vm slot_remove_nio_binding GRP3 0 0 
Mar 10 19:34:38.571 HYPERVISOR: exec_cmd: nio delete udp-f55da3d1-ef8e-4e81-a433-0b0e9c603ecb 
Mar 10 19:35:31.834 HYPERVISOR: exec_cmd: nio create_udp udp-debaaaab-f2c7-48e4-a378-7b97ca142b64 10004 127.0.0.1 10005 
Mar 10 19:35:31.842 HYPERVISOR: exec_cmd: vm slot_add_nio_binding GRP3 0 1 udp-debaaaab-f2c7-48e4-a378-7b97ca142b64 
Mar 10 19:35:31.843 HYPERVISOR: exec_cmd: vm get_status GRP3 
Mar 10 19:35:45.561 HYPERVISOR: exec_cmd: vm get_status GRP3 
Mar 10 19:35:45.562 HYPERVISOR: exec_cmd: vm slot_remove_nio_binding GRP3 0 1 
Mar 10 19:35:45.563 HYPERVISOR: exec_cmd: nio delete udp-debaaaab-f2c7-48e4-a378-7b97ca142b64 
Mar 10 19:36:07.284 HYPERVISOR: exec_cmd: nio create_udp udp-847fc720-5993-4e30-964c-010041b228b5 10004 127.0.0.1 10005 
Mar 10 19:36:07.293 HYPERVISOR: exec_cmd: vm slot_add_nio_binding GRP3 1 0 udp-847fc720-5993-4e30-964c-010041b228b5 
Mar 10 19:36:07.294 HYPERVISOR: exec_cmd: vm get_status GRP3 
Mar 10 19:45:14.377 HYPERVISOR: exec_cmd: vm get_status GRP3 
Mar 10 19:45:14.378 HYPERVISOR: exec_cmd: vm slot_remove_nio_binding GRP3 1 0 
Mar 10 19:45:14.379 HYPERVISOR: exec_cmd: nio delete udp-847fc720-5993-4e30-964c-010041b228b5 
Mar 10 19:48:44.658 HYPERVISOR: exec_cmd: nio create_udp udp-965e7f95-2a73-4911-9d48-a279b1fbe69f 10004 127.0.0.1 10005 
Mar 10 19:48:44.668 HYPERVISOR: exec_cmd: vm slot_add_nio_binding GRP3 1 0 udp-965e7f95-2a73-4911-9d48-a279b1fbe69f 
Mar 10 19:48:44.669 HYPERVISOR: exec_cmd: vm get_status GRP3 
Mar 10 19:49:05.187 HYPERVISOR: exec_cmd: vm get_status GRP3 
Mar 10 19:49:05.188 HYPERVISOR: exec_cmd: vm start GRP3 
Mar 10 20:13:06.596 HYPERVISOR: exec_cmd: nio create_udp udp-bae9685f-a646-4faf-859b-5d363a17d84b 10019 127.0.0.1 10018 
Mar 10 20:13:06.614 HYPERVISOR: exec_cmd: vm slot_add_nio_binding GRP3 1 1 udp-bae9685f-a646-4faf-859b-5d363a17d84b 
Mar 10 20:13:06.615 HYPERVISOR: exec_cmd: vm get_status GRP3 
Mar 10 20:13:06.615 HYPERVISOR: exec_cmd: vm slot_enable_nio GRP3 1 1 
Mar 10 21:29:49.688 HYPERVISOR: exec_cmd: vm extract_config GRP3 
Mar 10 22:00:27.496 HYPERVISOR: exec_cmd: vm get_status GRP3 
Mar 10 22:00:27.496 HYPERVISOR: exec_cmd: vm stop GRP3 
Mar 10 22:00:27.646 VM: VM GRP3 shutdown.
