Mar 10 19:27:15.866 HYPERVISOR: Release 0.2.14-x86/Windows (tag 2014092320)
Mar 10 19:27:15.867 HYPERVISOR: Started on IP = 127.0.0.1, TCP port = 52615.
Mar 10 19:27:16.306 HYPERVISOR: exec_cmd: hypervisor version 
Mar 10 19:27:16.306 HYPERVISOR: exec_cmd: hypervisor uuid 
Mar 10 19:27:16.306 HYPERVISOR: exec_cmd: hypervisor working_dir C:\Users\Clesio\GNS3\projects\Aula 25\project-files\dynamips 
Mar 10 19:27:16.307 GENERAL: working_dir=C:\Users\Clesio\GNS3\projects\Aula 25\project-files\dynamips
Mar 10 19:27:16.307 HYPERVISOR: exec_cmd: vm create ESW1 9 c3745 
Mar 10 19:27:16.311 VM: VM ESW1 created.
Mar 10 19:27:16.312 HYPERVISOR: exec_cmd: vm set_con_tcp_port ESW1 2013 
Mar 10 19:27:16.313 HYPERVISOR: exec_cmd: c3745 get_mac_addr ESW1 
Mar 10 19:27:16.313 HYPERVISOR: exec_cmd: vm set_nvram ESW1 256 
Mar 10 19:27:16.313 HYPERVISOR: exec_cmd: vm set_disk0 ESW1 1 
Mar 10 19:27:16.314 HYPERVISOR: exec_cmd: vm set_ios ESW1 C:/Users/Clesio/GNS3/images/IOS/c3745-ipvoicek9-mz.124-13b.image 
Mar 10 19:27:16.314 HYPERVISOR: exec_cmd: vm set_ram ESW1 256 
Mar 10 19:27:16.314 HYPERVISOR: exec_cmd: vm set_exec_area ESW1 64 
Mar 10 19:27:16.315 HYPERVISOR: exec_cmd: vm get_status ESW1 
Mar 10 19:27:16.315 HYPERVISOR: exec_cmd: vm slot_add_binding ESW1 1 0 NM-16ESW 
Mar 10 19:27:16.315 HYPERVISOR: exec_cmd: vm get_status ESW1 
Mar 10 19:27:16.315 HYPERVISOR: exec_cmd: vm set_idle_pc ESW1 0x60a4dabc 
Mar 10 19:27:16.320 HYPERVISOR: exec_cmd: vm set_config ESW1 configs/i9_startup-config.cfg 
Mar 10 19:27:16.320 HYPERVISOR: exec_cmd: vm set_ghost_status ESW1 2 
Mar 10 19:27:16.320 HYPERVISOR: exec_cmd: vm set_ghost_file ESW1 c3745-ipvoicek9-mz.124-13b.image-256.ghost 
Mar 10 19:27:27.749 HYPERVISOR: exec_cmd: vm rename ESW1 DISTRIBUICAO 
Mar 10 19:27:33.054 HYPERVISOR: exec_cmd: nio create_gen_eth generic_ethernet-71915eaf-f7a4-49a4-adf5-ba5b07073ad3 \Device\NPF_{1FC83F8A-67F0-4593-9B2F-2039AD1C5CBA} 
Mar 10 19:27:33.132 HYPERVISOR: exec_cmd: vm slot_add_nio_binding DISTRIBUICAO 0 0 generic_ethernet-71915eaf-f7a4-49a4-adf5-ba5b07073ad3 
Mar 10 19:27:33.132 HYPERVISOR: exec_cmd: vm get_status DISTRIBUICAO 
Mar 10 19:27:39.848 HYPERVISOR: exec_cmd: nio create_udp udp-a3c40c0c-8f30-4cc6-990f-0934d6096283 10001 127.0.0.1 10000 
Mar 10 19:27:39.859 HYPERVISOR: exec_cmd: vm slot_add_nio_binding DISTRIBUICAO 0 1 udp-a3c40c0c-8f30-4cc6-990f-0934d6096283 
Mar 10 19:27:39.859 HYPERVISOR: exec_cmd: vm get_status DISTRIBUICAO 
Mar 10 19:27:46.122 HYPERVISOR: exec_cmd: nio create_udp udp-2098325d-99a0-4480-92e9-119d0124717e 10003 127.0.0.1 10002 
Mar 10 19:27:46.123 HYPERVISOR: exec_cmd: vm slot_add_nio_binding DISTRIBUICAO 1 0 udp-2098325d-99a0-4480-92e9-119d0124717e 
Mar 10 19:27:46.124 HYPERVISOR: exec_cmd: vm get_status DISTRIBUICAO 
Mar 10 19:27:51.464 HYPERVISOR: exec_cmd: nio create_udp udp-25a9a99b-15f9-434b-8e01-d81900fd19ad 10005 127.0.0.1 10004 
Mar 10 19:27:51.465 HYPERVISOR: exec_cmd: vm slot_add_nio_binding DISTRIBUICAO 1 1 udp-25a9a99b-15f9-434b-8e01-d81900fd19ad 
Mar 10 19:27:51.466 HYPERVISOR: exec_cmd: vm get_status DISTRIBUICAO 
Mar 10 19:27:57.333 HYPERVISOR: exec_cmd: nio create_udp udp-ac90ba5f-1aad-4971-ba0e-bb000ba8a679 10007 127.0.0.1 10006 
Mar 10 19:27:57.335 HYPERVISOR: exec_cmd: vm slot_add_nio_binding DISTRIBUICAO 1 2 udp-ac90ba5f-1aad-4971-ba0e-bb000ba8a679 
Mar 10 19:27:57.335 HYPERVISOR: exec_cmd: vm get_status DISTRIBUICAO 
Mar 10 19:28:02.446 HYPERVISOR: exec_cmd: nio create_udp udp-b8a5f051-4495-48a0-aa59-ed733ea97fc5 10009 127.0.0.1 10008 
Mar 10 19:28:02.448 HYPERVISOR: exec_cmd: vm slot_add_nio_binding DISTRIBUICAO 1 3 udp-b8a5f051-4495-48a0-aa59-ed733ea97fc5 
Mar 10 19:28:02.449 HYPERVISOR: exec_cmd: vm get_status DISTRIBUICAO 
Mar 10 19:28:07.607 HYPERVISOR: exec_cmd: nio create_udp udp-8a8a5ac9-457b-4a92-b52d-360e64d7f0a7 10011 127.0.0.1 10010 
Mar 10 19:28:07.608 HYPERVISOR: exec_cmd: vm slot_add_nio_binding DISTRIBUICAO 1 4 udp-8a8a5ac9-457b-4a92-b52d-360e64d7f0a7 
Mar 10 19:28:07.609 HYPERVISOR: exec_cmd: vm get_status DISTRIBUICAO 
Mar 10 19:31:52.893 HYPERVISOR: exec_cmd: vm get_status DISTRIBUICAO 
Mar 10 19:31:52.893 HYPERVISOR: exec_cmd: vm slot_remove_nio_binding DISTRIBUICAO 0 0 
Mar 10 19:31:52.894 HYPERVISOR: exec_cmd: nio delete generic_ethernet-71915eaf-f7a4-49a4-adf5-ba5b07073ad3 
Mar 10 19:31:58.570 HYPERVISOR: exec_cmd: nio create_gen_eth generic_ethernet-f2a7c810-91ab-4479-9be7-9d0e25f03e0f \Device\NPF_{D9AE5D31-4CF4-46CE-A2EA-6BA6E8D8EEB6} 
Mar 10 19:31:58.571 HYPERVISOR: exec_cmd: vm slot_add_nio_binding DISTRIBUICAO 0 0 generic_ethernet-f2a7c810-91ab-4479-9be7-9d0e25f03e0f 
Mar 10 19:31:58.571 HYPERVISOR: exec_cmd: vm get_status DISTRIBUICAO 
Mar 10 19:32:13.674 HYPERVISOR: exec_cmd: vm get_status DISTRIBUICAO 
Mar 10 19:32:13.674 HYPERVISOR: exec_cmd: vm start DISTRIBUICAO 
Mar 10 19:34:13.270 HYPERVISOR: exec_cmd: vm get_status DISTRIBUICAO 
Mar 10 19:34:13.270 HYPERVISOR: exec_cmd: vm slot_disable_nio DISTRIBUICAO 0 0 
Mar 10 19:34:13.284 HYPERVISOR: exec_cmd: vm slot_remove_nio_binding DISTRIBUICAO 0 0 
Mar 10 19:34:13.284 HYPERVISOR: exec_cmd: nio delete generic_ethernet-f2a7c810-91ab-4479-9be7-9d0e25f03e0f 
Mar 10 19:34:21.667 HYPERVISOR: exec_cmd: nio create_gen_eth generic_ethernet-a8450460-4fb9-4cfd-856c-c946d7ee11d1 \Device\NPF_{D9AE5D31-4CF4-46CE-A2EA-6BA6E8D8EEB6} 
Mar 10 19:34:21.669 HYPERVISOR: exec_cmd: vm slot_add_nio_binding DISTRIBUICAO 1 15 generic_ethernet-a8450460-4fb9-4cfd-856c-c946d7ee11d1 
Mar 10 19:34:21.669 HYPERVISOR: exec_cmd: vm get_status DISTRIBUICAO 
Mar 10 19:34:21.669 HYPERVISOR: exec_cmd: vm slot_enable_nio DISTRIBUICAO 1 15 
Mar 10 19:34:30.996 HYPERVISOR: exec_cmd: vm get_status DISTRIBUICAO 
Mar 10 19:34:30.997 HYPERVISOR: exec_cmd: vm slot_disable_nio DISTRIBUICAO 1 0 
Mar 10 19:34:31.011 HYPERVISOR: exec_cmd: vm slot_remove_nio_binding DISTRIBUICAO 1 0 
Mar 10 19:34:31.012 HYPERVISOR: exec_cmd: nio delete udp-2098325d-99a0-4480-92e9-119d0124717e 
Mar 10 19:34:35.524 HYPERVISOR: exec_cmd: vm get_status DISTRIBUICAO 
Mar 10 19:34:35.525 HYPERVISOR: exec_cmd: vm slot_disable_nio DISTRIBUICAO 0 1 
Mar 10 19:34:35.532 HYPERVISOR: exec_cmd: vm slot_remove_nio_binding DISTRIBUICAO 0 1 
Mar 10 19:34:35.533 HYPERVISOR: exec_cmd: nio delete udp-a3c40c0c-8f30-4cc6-990f-0934d6096283 
Mar 10 19:34:38.570 HYPERVISOR: exec_cmd: vm get_status DISTRIBUICAO 
Mar 10 19:34:38.571 HYPERVISOR: exec_cmd: vm slot_disable_nio DISTRIBUICAO 1 1 
Mar 10 19:34:38.583 HYPERVISOR: exec_cmd: vm slot_remove_nio_binding DISTRIBUICAO 1 1 
Mar 10 19:34:38.584 HYPERVISOR: exec_cmd: nio delete udp-25a9a99b-15f9-434b-8e01-d81900fd19ad 
Mar 10 19:34:40.820 HYPERVISOR: exec_cmd: vm get_status DISTRIBUICAO 
Mar 10 19:34:40.820 HYPERVISOR: exec_cmd: vm slot_disable_nio DISTRIBUICAO 1 4 
Mar 10 19:34:40.828 HYPERVISOR: exec_cmd: vm slot_remove_nio_binding DISTRIBUICAO 1 4 
Mar 10 19:34:40.829 HYPERVISOR: exec_cmd: nio delete udp-8a8a5ac9-457b-4a92-b52d-360e64d7f0a7 
Mar 10 19:34:44.340 HYPERVISOR: exec_cmd: vm get_status DISTRIBUICAO 
Mar 10 19:34:44.340 HYPERVISOR: exec_cmd: vm slot_disable_nio DISTRIBUICAO 1 3 
Mar 10 19:34:44.348 HYPERVISOR: exec_cmd: vm slot_remove_nio_binding DISTRIBUICAO 1 3 
Mar 10 19:34:44.349 HYPERVISOR: exec_cmd: nio delete udp-b8a5f051-4495-48a0-aa59-ed733ea97fc5 
Mar 10 19:34:49.218 HYPERVISOR: exec_cmd: vm get_status DISTRIBUICAO 
Mar 10 19:34:49.219 HYPERVISOR: exec_cmd: vm slot_disable_nio DISTRIBUICAO 1 2 
Mar 10 19:34:49.239 HYPERVISOR: exec_cmd: vm slot_remove_nio_binding DISTRIBUICAO 1 2 
Mar 10 19:34:49.239 HYPERVISOR: exec_cmd: nio delete udp-ac90ba5f-1aad-4971-ba0e-bb000ba8a679 
Mar 10 19:34:59.932 HYPERVISOR: exec_cmd: nio create_udp udp-58027d86-a81c-4733-b8a2-1a73542a875b 10001 127.0.0.1 10000 
Mar 10 19:34:59.933 HYPERVISOR: exec_cmd: vm slot_add_nio_binding DISTRIBUICAO 1 0 udp-58027d86-a81c-4733-b8a2-1a73542a875b 
Mar 10 19:34:59.933 HYPERVISOR: exec_cmd: vm get_status DISTRIBUICAO 
Mar 10 19:34:59.934 HYPERVISOR: exec_cmd: vm slot_enable_nio DISTRIBUICAO 1 0 
Mar 10 19:35:21.329 HYPERVISOR: exec_cmd: nio create_udp udp-f0b38d29-6014-4a58-ad62-9dc931d98f4b 10003 127.0.0.1 10002 
Mar 10 19:35:21.330 HYPERVISOR: exec_cmd: vm slot_add_nio_binding DISTRIBUICAO 1 1 udp-f0b38d29-6014-4a58-ad62-9dc931d98f4b 
Mar 10 19:35:21.330 HYPERVISOR: exec_cmd: vm get_status DISTRIBUICAO 
Mar 10 19:35:21.339 HYPERVISOR: exec_cmd: vm slot_enable_nio DISTRIBUICAO 1 1 
Mar 10 19:35:31.842 HYPERVISOR: exec_cmd: nio create_udp udp-245b2dfa-b80c-4aa4-9540-c4715cc6f9bb 10005 127.0.0.1 10004 
Mar 10 19:35:31.843 HYPERVISOR: exec_cmd: vm slot_add_nio_binding DISTRIBUICAO 1 2 udp-245b2dfa-b80c-4aa4-9540-c4715cc6f9bb 
Mar 10 19:35:31.843 HYPERVISOR: exec_cmd: vm get_status DISTRIBUICAO 
Mar 10 19:35:31.852 HYPERVISOR: exec_cmd: vm slot_enable_nio DISTRIBUICAO 1 2 
Mar 10 19:35:41.084 HYPERVISOR: exec_cmd: vm get_status DISTRIBUICAO 
Mar 10 19:35:41.084 HYPERVISOR: exec_cmd: vm slot_disable_nio DISTRIBUICAO 1 0 
Mar 10 19:35:41.100 HYPERVISOR: exec_cmd: vm slot_remove_nio_binding DISTRIBUICAO 1 0 
Mar 10 19:35:41.101 HYPERVISOR: exec_cmd: nio delete udp-58027d86-a81c-4733-b8a2-1a73542a875b 
Mar 10 19:35:42.892 HYPERVISOR: exec_cmd: vm get_status DISTRIBUICAO 
Mar 10 19:35:42.893 HYPERVISOR: exec_cmd: vm slot_disable_nio DISTRIBUICAO 1 1 
Mar 10 19:35:42.900 HYPERVISOR: exec_cmd: vm slot_remove_nio_binding DISTRIBUICAO 1 1 
Mar 10 19:35:42.900 HYPERVISOR: exec_cmd: nio delete udp-f0b38d29-6014-4a58-ad62-9dc931d98f4b 
Mar 10 19:35:45.562 HYPERVISOR: exec_cmd: vm get_status DISTRIBUICAO 
Mar 10 19:35:45.563 HYPERVISOR: exec_cmd: vm slot_disable_nio DISTRIBUICAO 1 2 
Mar 10 19:35:45.576 HYPERVISOR: exec_cmd: vm slot_remove_nio_binding DISTRIBUICAO 1 2 
Mar 10 19:35:45.576 HYPERVISOR: exec_cmd: nio delete udp-245b2dfa-b80c-4aa4-9540-c4715cc6f9bb 
Mar 10 19:35:53.316 HYPERVISOR: exec_cmd: nio create_udp udp-e98cbdd5-f1ce-46f0-83af-9d52f1192b01 10001 127.0.0.1 10000 
Mar 10 19:35:53.317 HYPERVISOR: exec_cmd: vm slot_add_nio_binding DISTRIBUICAO 1 0 udp-e98cbdd5-f1ce-46f0-83af-9d52f1192b01 
Mar 10 19:35:53.317 HYPERVISOR: exec_cmd: vm get_status DISTRIBUICAO 
Mar 10 19:35:53.318 HYPERVISOR: exec_cmd: vm slot_enable_nio DISTRIBUICAO 1 0 
Mar 10 19:36:01.431 HYPERVISOR: exec_cmd: nio create_udp udp-13688d33-c54c-4b7c-915c-df0223966401 10003 127.0.0.1 10002 
Mar 10 19:36:01.432 HYPERVISOR: exec_cmd: vm slot_add_nio_binding DISTRIBUICAO 1 1 udp-13688d33-c54c-4b7c-915c-df0223966401 
Mar 10 19:36:01.432 HYPERVISOR: exec_cmd: vm get_status DISTRIBUICAO 
Mar 10 19:36:01.441 HYPERVISOR: exec_cmd: vm slot_enable_nio DISTRIBUICAO 1 1 
Mar 10 19:36:07.293 HYPERVISOR: exec_cmd: nio create_udp udp-f3efdc96-504d-49cf-9a73-4e470ef0656e 10005 127.0.0.1 10004 
Mar 10 19:36:07.294 HYPERVISOR: exec_cmd: vm slot_add_nio_binding DISTRIBUICAO 1 2 udp-f3efdc96-504d-49cf-9a73-4e470ef0656e 
Mar 10 19:36:07.294 HYPERVISOR: exec_cmd: vm get_status DISTRIBUICAO 
Mar 10 19:36:07.304 HYPERVISOR: exec_cmd: vm slot_enable_nio DISTRIBUICAO 1 2 
Mar 10 19:36:15.367 HYPERVISOR: exec_cmd: nio create_udp udp-c846c3c9-a852-4086-831b-945295aa5587 10007 127.0.0.1 10006 
Mar 10 19:36:15.367 HYPERVISOR: exec_cmd: vm slot_add_nio_binding DISTRIBUICAO 1 3 udp-c846c3c9-a852-4086-831b-945295aa5587 
Mar 10 19:36:15.368 HYPERVISOR: exec_cmd: vm get_status DISTRIBUICAO 
Mar 10 19:36:15.377 HYPERVISOR: exec_cmd: vm slot_enable_nio DISTRIBUICAO 1 3 
Mar 10 19:36:31.985 HYPERVISOR: exec_cmd: nio create_udp udp-3e2c3875-5f02-4e57-b02b-4c3946d62d5d 10009 127.0.0.1 10008 
Mar 10 19:36:31.985 HYPERVISOR: exec_cmd: vm slot_add_nio_binding DISTRIBUICAO 1 4 udp-3e2c3875-5f02-4e57-b02b-4c3946d62d5d 
Mar 10 19:36:31.986 HYPERVISOR: exec_cmd: vm get_status DISTRIBUICAO 
Mar 10 19:36:31.996 HYPERVISOR: exec_cmd: vm slot_enable_nio DISTRIBUICAO 1 4 
Mar 10 19:36:37.870 HYPERVISOR: exec_cmd: nio create_udp udp-474c68b5-f1ad-44a9-8a32-a6685eb6bf1e 10011 127.0.0.1 10010 
Mar 10 19:36:37.870 HYPERVISOR: exec_cmd: vm slot_add_nio_binding DISTRIBUICAO 1 5 udp-474c68b5-f1ad-44a9-8a32-a6685eb6bf1e 
Mar 10 19:36:37.871 HYPERVISOR: exec_cmd: vm get_status DISTRIBUICAO 
Mar 10 19:36:37.879 HYPERVISOR: exec_cmd: vm slot_enable_nio DISTRIBUICAO 1 5 
Mar 10 19:42:05.487 HYPERVISOR: exec_cmd: vm get_status DISTRIBUICAO 
Mar 10 19:42:05.487 HYPERVISOR: exec_cmd: vm slot_disable_nio DISTRIBUICAO 1 0 
Mar 10 19:42:05.499 HYPERVISOR: exec_cmd: vm slot_remove_nio_binding DISTRIBUICAO 1 0 
Mar 10 19:42:05.499 HYPERVISOR: exec_cmd: nio delete udp-e98cbdd5-f1ce-46f0-83af-9d52f1192b01 
Mar 10 19:42:13.774 HYPERVISOR: exec_cmd: nio create_udp udp-794801f1-b5e9-422a-8083-1fb97f7c77fd 10000 127.0.0.1 10001 
Mar 10 19:42:13.775 HYPERVISOR: exec_cmd: vm slot_add_nio_binding DISTRIBUICAO 1 0 udp-794801f1-b5e9-422a-8083-1fb97f7c77fd 
Mar 10 19:42:13.776 HYPERVISOR: exec_cmd: vm get_status DISTRIBUICAO 
Mar 10 19:42:13.776 HYPERVISOR: exec_cmd: vm slot_enable_nio DISTRIBUICAO 1 0 
Mar 10 19:45:06.725 HYPERVISOR: exec_cmd: vm get_status DISTRIBUICAO 
Mar 10 19:45:06.726 HYPERVISOR: exec_cmd: vm stop DISTRIBUICAO 
Mar 10 19:45:07.001 VM: VM DISTRIBUICAO shutdown.
Mar 10 19:45:14.314 HYPERVISOR: exec_cmd: vm get_status DISTRIBUICAO 
Mar 10 19:45:14.314 HYPERVISOR: exec_cmd: vm slot_remove_nio_binding DISTRIBUICAO 1 15 
Mar 10 19:45:14.315 HYPERVISOR: exec_cmd: nio delete generic_ethernet-a8450460-4fb9-4cfd-856c-c946d7ee11d1 
Mar 10 19:45:14.327 HYPERVISOR: exec_cmd: vm get_status DISTRIBUICAO 
Mar 10 19:45:14.328 HYPERVISOR: exec_cmd: vm slot_remove_nio_binding DISTRIBUICAO 1 1 
Mar 10 19:45:14.329 HYPERVISOR: exec_cmd: nio delete udp-13688d33-c54c-4b7c-915c-df0223966401 
Mar 10 19:45:14.370 HYPERVISOR: exec_cmd: vm get_status DISTRIBUICAO 
Mar 10 19:45:14.372 HYPERVISOR: exec_cmd: vm slot_remove_nio_binding DISTRIBUICAO 1 4 
Mar 10 19:45:14.373 HYPERVISOR: exec_cmd: nio delete udp-3e2c3875-5f02-4e57-b02b-4c3946d62d5d 
Mar 10 19:45:14.374 HYPERVISOR: exec_cmd: vm get_status DISTRIBUICAO 
Mar 10 19:45:14.377 HYPERVISOR: exec_cmd: vm slot_remove_nio_binding DISTRIBUICAO 1 3 
Mar 10 19:45:14.379 HYPERVISOR: exec_cmd: nio delete udp-c846c3c9-a852-4086-831b-945295aa5587 
Mar 10 19:45:14.381 HYPERVISOR: exec_cmd: vm get_status DISTRIBUICAO 
Mar 10 19:45:14.383 HYPERVISOR: exec_cmd: vm slot_remove_nio_binding DISTRIBUICAO 1 2 
Mar 10 19:45:14.385 HYPERVISOR: exec_cmd: nio delete udp-f3efdc96-504d-49cf-9a73-4e470ef0656e 
Mar 10 19:45:14.386 HYPERVISOR: exec_cmd: vm get_status DISTRIBUICAO 
Mar 10 19:45:14.387 HYPERVISOR: exec_cmd: vm slot_remove_nio_binding DISTRIBUICAO 1 5 
Mar 10 19:45:14.387 HYPERVISOR: exec_cmd: nio delete udp-474c68b5-f1ad-44a9-8a32-a6685eb6bf1e 
Mar 10 19:45:14.389 HYPERVISOR: exec_cmd: vm get_status DISTRIBUICAO 
Mar 10 19:45:14.389 HYPERVISOR: exec_cmd: vm slot_remove_nio_binding DISTRIBUICAO 1 0 
Mar 10 19:45:14.389 HYPERVISOR: exec_cmd: nio delete udp-794801f1-b5e9-422a-8083-1fb97f7c77fd 
Mar 10 19:45:14.391 HYPERVISOR: exec_cmd: vm get_status DISTRIBUICAO 
Mar 10 19:45:14.391 HYPERVISOR: exec_cmd: vm extract_config DISTRIBUICAO 
Mar 10 19:45:14.396 HYPERVISOR: exec_cmd: vm delete DISTRIBUICAO 
Mar 10 19:45:14.396 VM: VM DISTRIBUICAO destroyed.
Mar 10 19:45:14.401 HYPERVISOR: exec_cmd: hypervisor stop 
Mar 10 19:45:14.851 HYPERVISOR: Stopped.
Mar 10 19:45:14.851 GENERAL: reset done.
